Project 1: Exploratory Data Analysis
…
# Filter out the needed variables from the dataset
library(tidyverse)
TimeProvince %>% select(date, province, confirmed) %>% filter(!is.na(confirmed))

## # A tibble: 2,771 x 3
##    date       province    confirmed
##    <date>     <chr>           <dbl>
##  1 2020-01-20 Seoul               0
##  2 2020-01-20 Busan               0
##  3 2020-01-20 Daegu               0
##  4 2020-01-20 Incheon             1
##  5 2020-01-20 Gwangju             0
##  6 2020-01-20 Daejeon             0
##  7 2020-01-20 Ulsan               0
##  8 2020-01-20 Sejong              0
##  9 2020-01-20 Gyeonggi-do         0
## 10 2020-01-20 Gangwon-do          0
## # … with 2,761 more rows

Data1 <- TimeProvince %>% select(date, province, confirmed) %>% 
    filter(!is.na(confirmed))
Weather %>% select(province, date, avg_relative_humidity)

## # A tibble: 26,271 x 3
##    province          date       avg_relative_humidity
##    <chr>             <date>                     <dbl>
##  1 Seoul             2016-01-01                  73  
##  2 Busan             2016-01-01                  52.1
##  3 Daegu             2016-01-01                  70.5
##  4 Gwangju           2016-01-01                  73.1
##  5 Incheon           2016-01-01                  83.9
##  6 Daejeon           2016-01-01                  77.4
##  7 Ulsan             2016-01-01                  53.3
##  8 Gyeonggi-do       2016-01-01                  80.1
##  9 Gangwon-do        2016-01-01                  33  
## 10 Chungcheongbuk-do 2016-01-01                  79.4
## # … with 26,261 more rows

Data2 <- Weather %>% select(province, date, avg_relative_humidity)

Joining

# Joining two dataset by province of Korea
Data1 %>% left_join(Data2)

## # A tibble: 2,771 x 4
##    date       province    confirmed avg_relative_humidity
##    <date>     <chr>           <dbl>                 <dbl>
##  1 2020-01-20 Seoul               0                  46.8
##  2 2020-01-20 Busan               0                  45.6
##  3 2020-01-20 Daegu               0                  44.1
##  4 2020-01-20 Incheon             1                  56  
##  5 2020-01-20 Gwangju             0                  63.1
##  6 2020-01-20 Daejeon             0                  57.3
##  7 2020-01-20 Ulsan               0                  48.5
##  8 2020-01-20 Sejong              0                  NA  
##  9 2020-01-20 Gyeonggi-do         0                  68.5
## 10 2020-01-20 Gangwon-do          0                  38.8
## # … with 2,761 more rows

data <- Data1 %>% left_join(Data2)

# check whether there is NAs and getting rid of NAs
data %>% summarize_all(function(x) mean(!is.na(x)))

## # A tibble: 1 x 4
##    date province confirmed avg_relative_humidity
##   <dbl>    <dbl>     <dbl>                 <dbl>
## 1     1        1         1                 0.925

data %>% filter(!is.na(avg_relative_humidity))

## # A tibble: 2,563 x 4
##    date       province          confirmed avg_relative_humidity
##    <date>     <chr>                 <dbl>                 <dbl>
##  1 2020-01-20 Seoul                     0                  46.8
##  2 2020-01-20 Busan                     0                  45.6
##  3 2020-01-20 Daegu                     0                  44.1
##  4 2020-01-20 Incheon                   1                  56  
##  5 2020-01-20 Gwangju                   0                  63.1
##  6 2020-01-20 Daejeon                   0                  57.3
##  7 2020-01-20 Ulsan                     0                  48.5
##  8 2020-01-20 Gyeonggi-do               0                  68.5
##  9 2020-01-20 Gangwon-do                0                  38.8
## 10 2020-01-20 Chungcheongbuk-do         0                  63.3
## # … with 2,553 more rows

data <- data %>% filter(!is.na(avg_relative_humidity))

# seaparte year, month, and day into different columns
data %>% separate(date, into = c("year", "month", "day")) %>% 
    filter(!is.na(avg_relative_humidity))

## # A tibble: 2,563 x 6
##    year  month day   province          confirmed avg_relative_humidity
##    <chr> <chr> <chr> <chr>                 <dbl>                 <dbl>
##  1 2020  01    20    Seoul                     0                  46.8
##  2 2020  01    20    Busan                     0                  45.6
##  3 2020  01    20    Daegu                     0                  44.1
##  4 2020  01    20    Incheon                   1                  56  
##  5 2020  01    20    Gwangju                   0                  63.1
##  6 2020  01    20    Daejeon                   0                  57.3
##  7 2020  01    20    Ulsan                     0                  48.5
##  8 2020  01    20    Gyeonggi-do               0                  68.5
##  9 2020  01    20    Gangwon-do                0                  38.8
## 10 2020  01    20    Chungcheongbuk-do         0                  63.3
## # … with 2,553 more rows
…
population_15 <- Population_density_by_Population_Census_20201020052447 %>% 
    select(1, 4)

# rename the columns to make the joining easier and
# distinguish
population_15 <- rename(population_15, province = 1)
population_15 <- rename(population_15, pop15 = 2)

# joining
data %>% left_join(population_15)

## # A tibble: 2,563 x 7
##    year  month day   province          confirmed avg_relative_humidity   pop15
##    <chr> <chr> <chr> <chr>                 <dbl>                 <dbl>   <dbl>
##  1 2020  01    20    Seoul                     0                  46.8 16364  
##  2 2020  01    20    Busan                     0                  45.6  4480. 
##  3 2020  01    20    Daegu                     0                  44.1  2791  
##  4 2020  01    20    Incheon                   1                  56    2756. 
##  5 2020  01    20    Gwangju                   0                  63.1  2999. 
##  6 2020  01    20    Daejeon                   0                  57.3  2852. 
##  7 2020  01    20    Ulsan                     0                  48.5  1100. 
##  8 2020  01    20    Gyeonggi-do               0                  68.5  1226. 
##  9 2020  01    20    Gangwon-do                0                  38.8    90.2
## 10 2020  01    20    Chungcheongbuk-do         0                  63.3   215. 
## # … with 2,553 more rows

data <- data %>% left_join(population_15)

# drop unecessary columns
data %>% select(month, province, confirmed, avg_relative_humidity, 
    pop15)

## # A tibble: 2,563 x 5
##    month province          confirmed avg_relative_humidity   pop15
##    <chr> <chr>                 <dbl>                 <dbl>   <dbl>
##  1 01    Seoul                     0                  46.8 16364  
##  2 01    Busan                     0                  45.6  4480. 
##  3 01    Daegu                     0                  44.1  2791  
##  4 01    Incheon                   1                  56    2756. 
##  5 01    Gwangju                   0                  63.1  2999. 
##  6 01    Daejeon                   0                  57.3  2852. 
##  7 01    Ulsan                     0                  48.5  1100. 
##  8 01    Gyeonggi-do               0                  68.5  1226. 
##  9 01    Gangwon-do                0                  38.8    90.2
## 10 01    Chungcheongbuk-do         0                  63.3   215. 
## # … with 2,553 more rows

data <- data %>% select(month, province, confirmed, avg_relative_humidity, 
    pop15)

# calculate the average number of confirmed cases and the
# average of the humidity each month.
data %>% group_by(month, province) %>% summarize(province, covid_mean = mean(confirmed), 
    humidity_mean = mean(avg_relative_humidity), pop15) %>% distinct() %>% 
    arrange(province)

## # A tibble: 95 x 5
## # Groups:   month, province [95]
##    month province          covid_mean humidity_mean pop15
##    <chr> <chr>                  <dbl>         <dbl> <dbl>
##  1 01    Busan                   0             66.6 4480.
##  2 02    Busan                  13.3           55.1 4480.
##  3 03    Busan                 103.            56.9 4480.
##  4 04    Busan                 129.            52.6 4480.
##  5 05    Busan                 142.            72.5 4480.
##  6 06    Busan                 149.            73.3 4480.
##  7 01    Chungcheongbuk-do       0             68.8  215.
##  8 02    Chungcheongbuk-do       1.62          68.8  215.
##  9 03    Chungcheongbuk-do      28.9           57.8  215.
## 10 04    Chungcheongbuk-do      44.9           50.7  215.
## # … with 85 more rows

data <- data %>% group_by(month, province) %>% summarize(province, 
    covid_mean = mean(confirmed), humidity_mean = mean(avg_relative_humidity), 
    pop15) %>% distinct() %>% arrange(province)

# caculate the ratio for number of covid cases to population.
# covid patient density in each province.
data %>% mutate(covid_density = covid_mean/pop15)

## # A tibble: 95 x 6
## # Groups:   month, province [95]
##    month province          covid_mean humidity_mean pop15 covid_density
##    <chr> <chr>                  <dbl>         <dbl> <dbl>         <dbl>
##  1 01    Busan                   0             66.6 4480.       0      
##  2 02    Busan                  13.3           55.1 4480.       0.00297
##  3 03    Busan                 103.            56.9 4480.       0.0231 
##  4 04    Busan                 129.            52.6 4480.       0.0288 
##  5 05    Busan                 142.            72.5 4480.       0.0318 
##  6 06    Busan                 149.            73.3 4480.       0.0332 
##  7 01    Chungcheongbuk-do       0             68.8  215.       0      
##  8 02    Chungcheongbuk-do       1.62          68.8  215.       0.00755
##  9 03    Chungcheongbuk-do      28.9           57.8  215.       0.135  
## 10 04    Chungcheongbuk-do      44.9           50.7  215.       0.209  
## # … with 85 more rows

data <- data %>% mutate(covid_density = covid_mean/pop15)

# get ride of chungcheongbukdo because it doesnt have a data
# for june
data %>% filter(!province == "Chungcheongbuk-do") %>% select(month, 
    province, humidity_mean, covid_density) %>% filter(month == 
    "01" | month == "06")

## # A tibble: 30 x 4
## # Groups:   month, province [30]
##    month province          humidity_mean covid_density
##    <chr> <chr>                     <dbl>         <dbl>
##  1 01    Busan                      66.6        0     
##  2 06    Busan                      73.3        0.0332
##  3 01    Chungcheongnam-do          68.7        0     
##  4 06    Chungcheongnam-do          77.7        0.601 
##  5 01    Daegu                      69.6        0     
##  6 06    Daegu                      62.8        2.47  
##  7 01    Daejeon                    66.9        0     
##  8 06    Daejeon                    75.1        0.0225
##  9 01    Gangwon-do                 65.8        0     
## 10 06    Gangwon-do                 65.5        0.666 
## # … with 20 more rows
…
